<?xml version="1.0" encoding="utf-8"?>
<!-- Generator: Adobe Illustrator 25.3.0, SVG Export Plug-In . SVG Version: 6.00 Build 0)  -->
<svg version="1.1" id="Layer_1" xmlns="http://www.w3.org/2000/svg" xmlns:xlink="http://www.w3.org/1999/xlink" x="0px" y="0px"
	 viewBox="0 0 1354.3 282" style="enable-background:new 0 0 1354.3 282;" xml:space="preserve">
<style type="text/css">
	.st0{fill:#878787;}
	.st1{fill:#3B8ACA;}
	.st2{fill:none;}
	.st3{fill:#5DB751;}
</style>
<g>
	<path class="st0" d="M220.2,258.1l-4.2,12.8h-5.4l13.8-40.7h6.3l13.9,40.7h-5.6l-4.3-12.8H220.2z M233.5,254l-4-11.7
		c-0.8-2.7-1.5-5.1-2.1-7.4h-0.2c-0.5,2.4-1.2,4.9-2,7.4l-4,11.8H233.5z"/>
</g>
<g>
	<path class="st0" d="M272.9,262.9c0,3,0.1,5.7,0.2,8h-4.7l-0.3-4.8H268c-1.3,2.4-4.5,5.4-9.7,5.4c-4.6,0-10.1-2.6-10.1-12.8v-17.1
		h5.3v16.1c0,5.6,1.7,9.4,6.5,9.4c3.6,0,6-2.5,7-4.9c0.3-0.7,0.5-1.7,0.5-2.7v-17.9h5.3V262.9z"/>
</g>
<g>
	<path class="st0" d="M286.9,234.6v7h7.6v4h-7.6v15.7c0,3.6,1,5.7,4,5.7c1.4,0,2.3-0.1,3.1-0.4l0.2,4c-1,0.4-2.7,0.7-4.7,0.7
		c-2.5,0-4.5-0.8-5.7-2.2c-1.4-1.6-2.1-4.2-2.1-7.7v-15.9h-4.5v-4h4.5v-5.4L286.9,234.6z"/>
</g>
<g>
	<path class="st0" d="M310.8,271.5c-7.8,0-14-5.8-14-15c0-9.8,6.5-15.5,14.5-15.5c8.4,0,14.1,6.1,14.1,15
		C325.3,266.8,317.8,271.5,310.8,271.5L310.8,271.5z M311,267.5c5.1,0,8.9-4.8,8.9-11.4c0-4.9-2.5-11.2-8.8-11.2
		c-6.2,0-8.9,5.8-8.9,11.3C302.2,262.7,305.8,267.5,311,267.5L311,267.5z"/>
</g>
<g>
	<path class="st0" d="M330.8,249.5c0-3.1-0.1-5.5-0.2-7.9h4.6l0.2,4.7h0.2c1.6-2.8,4.3-5.4,9.2-5.4c3.9,0,6.9,2.4,8.2,5.9h0.1
		c0.9-1.7,2.1-2.9,3.3-3.8c1.8-1.3,3.6-2.1,6.4-2.1c3.9,0,9.7,2.5,9.7,12.7v17.2h-5.2v-16.5c0-5.7-2.1-9-6.3-9
		c-3.1,0-5.4,2.2-6.3,4.8c-0.2,0.8-0.4,1.7-0.4,2.7v18.1h-5.2v-17.5c0-4.7-2-8-6.1-8c-3.3,0-5.7,2.7-6.6,5.3
		c-0.3,0.8-0.4,1.7-0.4,2.6v17.6h-5.2V249.5z"/>
</g>
<g>
	<path class="st0" d="M400.6,263.8c0,2.5,0.1,5,0.4,7h-4.8l-0.5-3.7h-0.2c-1.6,2.3-4.8,4.3-8.9,4.3c-5.9,0-8.9-4.2-8.9-8.4
		c0-7.1,6.3-10.9,17.6-10.9v-0.6c0-2.4-0.7-6.8-6.6-6.8c-2.8,0-5.6,0.8-7.7,2.2l-1.2-3.6c2.4-1.5,6-2.5,9.7-2.5
		c9,0,11.2,6.1,11.2,12V263.8z M395.4,255.9c-5.8-0.1-12.4,0.9-12.4,6.6c0,3.5,2.3,5.1,4.9,5.1c3.9,0,6.3-2.4,7.2-4.9
		c0.2-0.5,0.2-1.1,0.2-1.7V255.9z"/>
</g>
<g>
	<path class="st0" d="M414,234.6v7h7.6v4H414v15.7c0,3.6,1,5.7,4,5.7c1.5,0,2.3-0.1,3.1-0.4l0.2,4c-1,0.4-2.7,0.7-4.7,0.7
		c-2.5,0-4.5-0.8-5.7-2.2c-1.4-1.6-2.1-4.2-2.1-7.7v-15.9h-4.5v-4h4.5v-5.4L414,234.6z"/>
</g>
<g>
	<path class="st0" d="M428.9,236.3c-2,0-3.3-1.6-3.3-3.4s1.4-3.4,3.4-3.4c2.1,0,3.4,1.5,3.4,3.4S431.1,236.3,428.9,236.3
		L428.9,236.3z M426.4,241.6h5.3v29.2h-5.3V241.6z"/>
</g>
<g>
	<path class="st0" d="M439.3,249.5c0-3.1-0.1-5.5-0.2-7.9h4.7l0.3,4.8h0.1c1.4-2.7,4.8-5.4,9.7-5.4c4,0,10.3,2.4,10.3,12.4v17.4
		h-5.3V254c0-4.7-1.8-8.7-6.8-8.7c-3.4,0-6.2,2.5-7.1,5.4c-0.2,0.7-0.4,1.6-0.4,2.5v17.6h-5.3V249.5z"/>
</g>
<g>
	<path class="st0" d="M496.6,266.6c0,6.8-1.4,10.8-4.2,13.4c-2.9,2.6-7,3.5-10.7,3.5c-3.5,0-7.4-0.8-9.7-2.4l1.3-4.1
		c1.9,1.3,4.9,2.4,8.6,2.4c5.4,0,9.4-2.8,9.4-10.3v-3.2h-0.1c-1.6,2.7-4.8,4.9-9.3,4.9c-7.2,0-12.4-6.2-12.4-14.3
		c0-9.9,6.5-15.4,13.2-15.4c5.1,0,7.8,2.6,9.1,5h0.1l0.2-4.3h4.7c-0.2,2-0.2,4.4-0.2,8V266.6z M491.3,253.1c0-0.8-0.1-1.6-0.3-2.4
		c-1-3.1-3.5-5.7-7.4-5.7c-5.1,0-8.7,4.3-8.7,11.1c0,5.7,3,10.5,8.6,10.5c3.3,0,6.3-2.1,7.4-5.5c0.3-0.8,0.4-1.9,0.4-2.8V253.1z"/>
</g>
<g>
	<path class="st0" d="M550.2,253c-0.3-5.7-0.7-12.6-0.7-17.6h-0.1c-1.4,4.7-3.1,9.8-5.1,15.4l-7.2,19.7h-4l-6.6-19.4
		c-1.9-5.8-3.5-11-4.6-15.8h-0.1c-0.1,5.1-0.4,11.8-0.8,18l-1.1,17.4h-5l2.8-40.7h6.7l6.9,19.7c1.7,5,3,9.5,4.1,13.7h0.1
		c1.1-4.1,2.5-8.6,4.3-13.7l7.2-19.7h6.7l2.5,40.7h-5.2L550.2,253z"/>
</g>
<g>
	<path class="st0" d="M566.4,257.2c0.1,7.2,4.6,10.1,10,10.1c3.8,0,6.2-0.7,8.1-1.5l1,3.7c-1.9,0.8-5.1,1.9-9.8,1.9
		c-8.9,0-14.4-6-14.4-14.7c0-8.9,5.3-15.8,13.8-15.8c9.5,0,12,8.4,12,13.8c0,1.1-0.1,1.9-0.2,2.5L566.4,257.2z M582,253.3
		c0.1-3.3-1.4-8.6-7.3-8.6c-5.4,0-7.7,4.9-8.1,8.6H582z"/>
</g>
<g>
	<path class="st0" d="M617.7,228v35.3c0,2.6,0.1,5.6,0.2,7.6h-4.8l-0.2-5.1h-0.1c-1.6,3.3-5.1,5.7-9.9,5.7c-7.1,0-12.6-6-12.6-14.8
		c-0.1-9.8,6-15.7,13.1-15.7c4.5,0,7.5,2.1,8.8,4.4h0.1V228H617.7z M612.4,253.5c0-0.7-0.1-1.6-0.2-2.3c-0.8-3.3-3.7-6.1-7.7-6.1
		c-5.5,0-8.8,4.8-8.8,11.2c0,6,3,10.9,8.6,10.9c3.6,0,6.8-2.4,7.8-6.3c0.2-0.7,0.2-1.5,0.2-2.3V253.5z"/>
</g>
<g>
	<path class="st0" d="M627.8,236.3c-2,0-3.3-1.6-3.3-3.4s1.4-3.4,3.4-3.4c2,0,3.4,1.5,3.4,3.4S630,236.3,627.8,236.3L627.8,236.3z
		 M625.3,241.6h5.3v29.2h-5.3V241.6z"/>
</g>
<g>
	<path class="st0" d="M659,269.8c-1.4,0.7-4.5,1.7-8.4,1.7c-8.8,0-14.5-6-14.5-15c0-9,6.2-15.6,15.7-15.6c3.1,0,5.9,0.8,7.4,1.6
		l-1.2,4c-1.3-0.7-3.3-1.4-6.2-1.4c-6.7,0-10.3,5-10.3,11.1c0,6.8,4.3,10.9,10.1,10.9c3,0,5-0.7,6.5-1.4L659,269.8z"/>
</g>
<g>
	<path class="st0" d="M684.7,263.8c0,2.5,0.1,5,0.4,7h-4.8l-0.5-3.7h-0.2c-1.6,2.3-4.8,4.3-8.9,4.3c-5.9,0-8.9-4.2-8.9-8.4
		c0-7.1,6.3-10.9,17.6-10.9v-0.6c0-2.4-0.7-6.8-6.6-6.8c-2.8,0-5.6,0.8-7.7,2.2l-1.2-3.6c2.4-1.5,6-2.5,9.7-2.5
		c9,0,11.2,6.1,11.2,12V263.8z M679.5,255.9c-5.8-0.1-12.4,0.9-12.4,6.6c0,3.5,2.3,5.1,4.9,5.1c3.9,0,6.3-2.4,7.2-4.9
		c0.2-0.5,0.2-1.1,0.2-1.7V255.9z"/>
</g>
<g>
	<rect x="692" y="228" class="st0" width="5.3" height="42.9"/>
</g>
<g>
	<path class="st0" d="M716.7,230.8c2.7-0.5,6.5-0.9,10.1-0.9c5.6,0,9.3,1.1,11.8,3.4c2,1.7,3.2,4.5,3.2,7.7c0,5.3-3.4,8.9-7.7,10.3
		v0.2c3.1,1.1,4.9,4,6,8.2c1.3,5.7,2.3,9.6,3.1,11.2h-5.4c-0.7-1.1-1.6-4.6-2.7-9.7c-1.2-5.6-3.4-7.7-8.2-7.9h-4.9v17.6h-5.3V230.8z
		 M721.9,249.2h5.4c5.6,0,9.2-3.1,9.2-7.7c0-5.3-3.8-7.5-9.4-7.5c-2.5,0-4.3,0.2-5.2,0.5V249.2z"/>
</g>
<g>
	<path class="st0" d="M751,257.2c0.1,7.2,4.6,10.1,10,10.1c3.8,0,6.2-0.7,8.1-1.5l1,3.7c-1.9,0.8-5.1,1.9-9.8,1.9
		c-8.9,0-14.4-6-14.4-14.7c0-8.9,5.3-15.8,13.8-15.8c9.5,0,12,8.4,12,13.8c0,1.1-0.1,1.9-0.2,2.5L751,257.2z M766.5,253.3
		c0.1-3.3-1.4-8.6-7.3-8.6c-5.4,0-7.7,4.9-8.1,8.6H766.5z"/>
</g>
<g>
	<path class="st0" d="M778.9,241.6l5.7,16.4c1,2.7,1.7,5.1,2.4,7.5h0.2c0.7-2.4,1.5-4.8,2.5-7.5l5.7-16.4h5.6l-11.5,29.2h-5.1
		l-11.1-29.2H778.9z"/>
</g>
<g>
	<path class="st0" d="M807.2,236.3c-2,0-3.3-1.6-3.3-3.4s1.4-3.4,3.4-3.4c2,0,3.4,1.5,3.4,3.4S809.4,236.3,807.2,236.3L807.2,236.3z
		 M804.7,241.6h5.3v29.2h-5.3V241.6z"/>
</g>
<g>
	<path class="st0" d="M820.6,257.2c0.1,7.2,4.6,10.1,10,10.1c3.8,0,6.2-0.7,8.1-1.5l1,3.7c-1.9,0.8-5.1,1.9-9.8,1.9
		c-8.9,0-14.4-6-14.4-14.7c0-8.9,5.3-15.8,13.8-15.8c9.5,0,12,8.4,12,13.8c0,1.1-0.1,1.9-0.2,2.5L820.6,257.2z M836.2,253.3
		c0.1-3.3-1.4-8.6-7.3-8.6c-5.4,0-7.7,4.9-8.1,8.6H836.2z"/>
</g>
<g>
	<path class="st0" d="M848.8,241.6l3.9,14.8c0.8,3.3,1.6,6.3,2.1,9.4h0.2c0.7-3,1.6-6.1,2.6-9.3l4.8-14.8h4.5l4.5,14.6
		c1.1,3.4,1.9,6.6,2.6,9.5h0.2c0.5-3,1.3-6,2.2-9.5l4.2-14.7h5.2l-9.4,29.2h-4.8l-4.5-13.9c-1-3.3-1.9-6.2-2.6-9.7h-0.1
		c-0.7,3.5-1.6,6.6-2.7,9.7l-4.7,13.9h-4.8l-8.8-29.2H848.8z"/>
</g>
<g>
	<path class="st0" d="M927.1,270.9c-1.1-1.2-2.2-2.3-3.8-3.9c-3.5,3.2-7.4,4.6-11.9,4.6c-7.9,0-12.5-5.3-12.5-11.4
		c0-5.6,3.3-9.3,8-11.9V248c-2-2.7-3.4-5.6-3.4-8.5c0-4.9,3.6-10,10.4-10c5.1,0,9,3.3,9,8.6c0,4.3-2.5,7.7-8.9,10.9v0.2
		c3.4,4,7.3,8.4,9.9,11.3c1.9-2.8,3.1-6.8,3.9-11.9h4.8c-1.1,6.4-2.8,11.5-5.9,15c2.2,2.3,4.3,4.6,6.7,7.2H927.1z M912.4,267.5
		c3.5,0,6.4-1.6,8.3-3.7c-2.4-2.6-6.9-7.6-11.4-12.8c-2.2,1.4-5.2,4-5.2,8.3C904.1,264,907.5,267.5,912.4,267.5L912.4,267.5z
		 M913.5,233.1c-3.3,0-5.1,2.8-5.1,5.9c0,2.9,1.4,5.1,3.1,7.3c4.2-2.4,6.8-4.5,6.8-8C918.3,235.9,916.9,233.1,913.5,233.1
		L913.5,233.1z"/>
</g>
<g>
	<path class="st0" d="M955.1,258.1l-4.2,12.8h-5.4l13.8-40.7h6.3l13.9,40.7h-5.6l-4.3-12.8H955.1z M968.5,254l-4-11.7
		c-0.8-2.7-1.4-5.1-2-7.4h-0.2c-0.5,2.4-1.2,4.9-2,7.4l-4,11.8H968.5z"/>
</g>
<g>
	<path class="st0" d="M983.9,251.2c0-3.7-0.1-6.8-0.2-9.5h4.8l0.3,5h0.1c2.1-3.6,5.6-5.7,10.3-5.7c7.1,0,12.4,6,12.4,14.8
		c0,10.5-6.5,15.7-13.3,15.7c-3.9,0-7.2-1.7-9-4.6h-0.1v15.9h-5.3V251.2z M989.3,259c0,0.7,0.1,1.5,0.2,2.2c0.9,3.7,4.2,6.2,7.9,6.2
		c5.6,0,8.9-4.6,8.9-11.3c0-5.9-3-10.9-8.6-10.9c-3.6,0-7.1,2.5-8.1,6.5c-0.1,0.7-0.3,1.5-0.3,2.2V259z"/>
</g>
<g>
	<path class="st0" d="M1017.1,251.2c0-3.7-0.1-6.8-0.2-9.5h4.8l0.3,5h0.1c2.1-3.6,5.6-5.7,10.3-5.7c7.1,0,12.4,6,12.4,14.8
		c0,10.5-6.5,15.7-13.3,15.7c-3.9,0-7.2-1.7-9-4.6h-0.1v15.9h-5.3V251.2z M1022.4,259c0,0.7,0.1,1.5,0.2,2.2
		c0.9,3.7,4.2,6.2,7.9,6.2c5.6,0,8.9-4.6,8.9-11.3c0-5.9-3-10.9-8.6-10.9c-3.6,0-7.1,2.5-8.1,6.5c-0.1,0.7-0.3,1.5-0.3,2.2V259z"/>
</g>
<g>
	<path class="st0" d="M1050.3,250.8c0-3.4-0.1-6.4-0.2-9.1h4.6l0.2,5.7h0.2c1.3-3.9,4.6-6.4,8.1-6.4c0.5,0,1,0.1,1.5,0.2v4.9
		c-0.6-0.1-1.1-0.1-1.9-0.1c-3.7,0-6.4,2.8-7.1,6.8c-0.1,0.8-0.2,1.6-0.2,2.5v15.6h-5.3L1050.3,250.8z"/>
</g>
<g>
	<path class="st0" d="M1080.3,271.5c-7.8,0-14-5.8-14-15c0-9.8,6.5-15.5,14.5-15.5c8.4,0,14.1,6.1,14.1,15
		C1094.8,266.8,1087.3,271.5,1080.3,271.5L1080.3,271.5z M1080.5,267.5c5.1,0,8.9-4.8,8.9-11.4c0-4.9-2.5-11.2-8.8-11.2
		c-6.2,0-8.9,5.8-8.9,11.3C1071.7,262.7,1075.3,267.5,1080.5,267.5L1080.5,267.5z"/>
</g>
<g>
	<path class="st0" d="M1101.9,241.6l5.7,16.4c1,2.7,1.8,5.1,2.4,7.5h0.2c0.7-2.4,1.5-4.8,2.5-7.5l5.7-16.4h5.6l-11.5,29.2h-5.1
		l-11.1-29.2H1101.9z"/>
</g>
<g>
	<path class="st0" d="M1147.4,263.8c0,2.5,0.1,5,0.4,7h-4.8l-0.5-3.7h-0.2c-1.6,2.3-4.8,4.3-8.9,4.3c-5.9,0-8.9-4.2-8.9-8.4
		c0-7.1,6.3-10.9,17.6-10.9v-0.6c0-2.4-0.7-6.8-6.6-6.8c-2.8,0-5.6,0.8-7.7,2.2l-1.2-3.6c2.4-1.5,6-2.5,9.7-2.5
		c9,0,11.2,6.1,11.2,12V263.8z M1142.2,255.9c-5.8-0.1-12.4,0.9-12.4,6.6c0,3.5,2.3,5.1,4.9,5.1c3.9,0,6.3-2.4,7.2-4.9
		c0.2-0.5,0.2-1.1,0.2-1.7V255.9z"/>
</g>
<g>
	<rect x="1154.7" y="228" class="st0" width="5.3" height="42.9"/>
</g>
<g>
	<path class="st1" d="M989.8,77.2c-3.9,0-7.7-1.6-10.5-4.4l-24.6-24.6c-5.8-5.8-5.8-15.2,0-21.1c5.8-5.8,15.2-5.8,21.1,0l13.5,13.5
		l30-33.3c5.5-6.1,14.9-6.6,21-1.1c6.1,5.5,6.6,14.9,1.1,21l-40.5,44.9c-2.7,3-6.6,4.8-10.7,4.9C990.1,77.2,989.9,77.2,989.8,77.2"
		/>
</g>
<g>
	<line class="st2" x1="1.9" y1="1.4" x2="1.9" y2="279.6"/>
</g>
<g>
	<line class="st2" x1="1232.5" y1="1.4" x2="1.9" y2="1.4"/>
</g>
<g>
	<path class="st1" d="M1347.3,91.5c0,10.1-7.9,18.1-18.3,18.1c-10.2,0-18.4-7.9-18.4-18.1c0-9.9,8.2-17.9,18.4-17.9
		C1339.4,73.7,1347.3,81.6,1347.3,91.5 M1315.2,91.5c0,7.9,5.9,14.3,13.9,14.3c7.8,0,13.6-6.3,13.6-14.2c0-7.9-5.8-14.4-13.7-14.4
		C1321.1,77.3,1315.2,83.7,1315.2,91.5 M1326.2,100.9h-4.1V83c1.6-0.3,3.9-0.5,6.9-0.5c3.4,0,4.9,0.5,6.2,1.3c1,0.8,1.7,2.2,1.7,3.9
		c0,2-1.5,3.5-3.7,4.1v0.2c1.7,0.7,2.7,2,3.3,4.4c0.5,2.7,0.9,3.8,1.3,4.5h-4.5c-0.5-0.7-0.9-2.3-1.4-4.4c-0.3-2-1.4-2.8-3.7-2.8h-2
		V100.9z M1326.3,90.8h2c2.3,0,4.1-0.8,4.1-2.6c0-1.6-1.2-2.7-3.8-2.7c-1.1,0-1.8,0.1-2.3,0.2V90.8z"/>
</g>
<g>
	<line class="st2" x1="1504.7" y1="206.5" x2="1504.7" y2="-3.6"/>
</g>
<g>
	<path class="st3" d="M57.8,203L5.3,38.9h40.7l20,69.4c5.6,19.5,10.7,38.2,14.6,58.7h0.7c4.1-19.7,9.2-39.2,14.8-57.9L117,38.9h39.4
		L101.2,203H57.8z"/>
	<path class="st3" d="M178.8,155.3c1.2,15.3,16.3,22.6,33.6,22.6c12.7,0,22.9-1.7,32.9-4.9l4.9,25.1c-12.2,4.9-27,7.3-43.1,7.3
		c-40.4,0-63.5-23.4-63.5-60.6c0-30.2,18.7-63.5,60.1-63.5c38.5,0,53.1,29.9,53.1,59.4c0,6.3-0.7,11.9-1.2,14.6H178.8z M222.4,129.9
		c0-9-3.9-24.1-20.9-24.1c-15.6,0-21.9,14.1-22.9,24.1H222.4z"/>
	<path class="st3" d="M308.1,49.9v34.1h26.5v27.3h-26.5v43.1c0,14.4,3.4,20.9,14.6,20.9c4.6,0,8.3-0.5,11-1l0.2,28
		c-4.9,1.9-13.6,3.2-24.1,3.2c-11.9,0-21.9-4.1-27.8-10.2c-6.8-7.1-10.2-18.5-10.2-35.3v-48.7H256V83.9h15.8V58.1L308.1,49.9z"/>
	<path class="st3" d="M385.2,49.9v34.1h26.5v27.3h-26.5v43.1c0,14.4,3.4,20.9,14.6,20.9c4.6,0,8.3-0.5,11-1l0.2,28
		c-4.9,1.9-13.6,3.2-24.1,3.2c-11.9,0-21.9-4.1-27.8-10.2c-6.8-7.1-10.2-18.5-10.2-35.3v-48.7h-15.8V83.9H349V58.1L385.2,49.9z"/>
	<path class="st3" d="M448.3,155.3c1.2,15.3,16.3,22.6,33.6,22.6c12.7,0,22.9-1.7,32.9-4.9l4.9,25.1c-12.2,4.9-27,7.3-43.1,7.3
		c-40.4,0-63.5-23.4-63.5-60.6c0-30.2,18.7-63.5,60.1-63.5c38.5,0,53.1,29.9,53.1,59.4c0,6.3-0.7,11.9-1.2,14.6H448.3z M491.9,129.9
		c0-9-3.9-24.1-20.9-24.1c-15.6,0-21.9,14.1-22.9,24.1H491.9z"/>
	<path class="st3" d="M651.5,30.1v137.3c0,13.4,0.5,27.5,1,35.5h-32.9l-1.7-17.5h-0.5c-7.5,13.4-21.9,20.2-37.2,20.2
		c-28.2,0-50.9-24.1-50.9-61.1c-0.2-40.2,24.8-63.3,53.3-63.3c14.6,0,26,5.1,31.4,13.4h0.5V30.1H651.5z M614.5,134.3
		c0-1.9-0.2-4.6-0.5-6.6c-2.2-10-10.2-18.3-21.7-18.3c-16.8,0-25.6,15.1-25.6,33.8c0,20.2,10,32.9,25.3,32.9
		c10.7,0,19.2-7.3,21.4-17.8c0.7-2.7,1-5.4,1-8.5V134.3z"/>
	<path class="st1" d="M790.8,198.4c-6.8,3.4-22.2,7.1-42.1,7.1c-56.7,0-85.9-35.3-85.9-82c0-56,39.9-87.1,89.6-87.1
		c19.2,0,33.8,3.9,40.4,7.3L785.2,73c-7.5-3.2-18-6.1-31.2-6.1c-29.5,0-52.3,17.8-52.3,54.3c0,32.9,19.5,53.6,52.6,53.6
		c11.2,0,23.6-2.4,30.9-5.4L790.8,198.4z"/>
	<path class="st1" d="M801,30.1h37V203h-37V30.1z"/>
	<path class="st1" d="M923.4,203l-2.2-11.9h-0.7c-7.8,9.5-20,14.6-34.1,14.6c-24.1,0-38.5-17.5-38.5-36.5
		c0-30.9,27.8-45.8,69.9-45.5v-1.7c0-6.3-3.4-15.3-21.7-15.3c-12.2,0-25.1,4.1-32.9,9l-6.8-23.9c8.3-4.6,24.6-10.5,46.2-10.5
		c39.7,0,52.3,23.4,52.3,51.4V174c0,11.4,0.5,22.4,1.7,29H923.4z M919,146.7c-19.5-0.2-34.6,4.4-34.6,18.7c0,9.5,6.3,14.1,14.6,14.1
		c9.3,0,16.8-6.1,19.2-13.6c0.5-1.9,0.7-4.1,0.7-6.3V146.7z"/>
	<path class="st1" d="M972.1,203v-119h37v119H972.1z"/>
	<path class="st1" d="M1026.6,121.9c0-14.8-0.5-27.5-1-38h31.2l1.7,16.1h0.7c5.1-7.5,15.6-18.7,36-18.7c15.3,0,27.5,7.8,32.6,20.2
		h0.5c4.4-6.1,9.7-11,15.3-14.4c6.6-3.9,13.9-5.8,22.6-5.8c22.9,0,40.2,16.1,40.2,51.6V203h-36v-64.8c0-17.3-5.6-27.3-17.5-27.3
		c-8.5,0-14.6,5.8-17,12.9c-1,2.7-1.5,6.6-1.5,9.5V203h-36v-66.7c0-15.1-5.4-25.3-17-25.3c-9.5,0-15.1,7.3-17.3,13.4
		c-1.2,2.9-1.5,6.3-1.5,9.3V203h-36V121.9z"/>
	<path class="st1" d="M1223.6,170.6c6.8,4.1,20.9,9,31.9,9c11.2,0,15.8-3.9,15.8-10c0-6.1-3.7-9-17.5-13.6
		c-24.6-8.3-34.1-21.7-33.8-35.8c0-22.2,19-38.9,48.4-38.9c13.9,0,26.3,3.2,33.6,6.8l-6.6,25.6c-5.4-2.9-15.6-6.8-25.8-6.8
		c-9,0-14.1,3.7-14.1,9.7c0,5.6,4.6,8.5,19.2,13.6c22.6,7.8,32.1,19.2,32.4,36.8c0,22.2-17.5,38.5-51.6,38.5
		c-15.6,0-29.5-3.4-38.5-8.3L1223.6,170.6z"/>
</g>
</svg>
