<?xml version="1.0" encoding="utf-8"?>
<!-- Generator: Adobe Illustrator 16.0.0, SVG Export Plug-In . SVG Version: 6.00 Build 0)  -->
<!DOCTYPE svg PUBLIC "-//W3C//DTD SVG 1.1//EN" "http://www.w3.org/Graphics/SVG/1.1/DTD/svg11.dtd">
<svg version="1.1" id="Layer_1" xmlns="http://www.w3.org/2000/svg" xmlns:xlink="http://www.w3.org/1999/xlink" x="0px" y="0px"
	 width="100px" height="100px" viewBox="0 0 100 100" enable-background="new 0 0 100 100" xml:space="preserve">
<g>
	<circle fill="none" stroke="#6C6D73" stroke-width="2.9817" stroke-miterlimit="10" cx="29.119" cy="49.927" r="8.54"/>
	<path fill="none" stroke="#6C6D73" stroke-width="2.9817" stroke-miterlimit="10" d="M51.036,44.049h38.982
		c1.591,0,2.879,1.289,2.879,2.878v11.256"/>
	
		<line fill="none" stroke="#6C6D73" stroke-width="2.9817" stroke-linecap="round" stroke-miterlimit="10" x1="75.951" y1="56.393" x2="83.181" y2="56.393"/>
	
		<line fill="none" stroke="#6C6D73" stroke-width="2.9817" stroke-linecap="round" stroke-miterlimit="10" x1="58.887" y1="56.355" x2="66.115" y2="56.355"/>
	<path fill="none" stroke="#6C6D73" stroke-width="2.9817" stroke-linecap="round" stroke-miterlimit="10" d="M92.914,56.355v4.234
		c0,2.529-1.92,4.581-4.448,4.581h-0.699c-2.526,0-4.575-2.052-4.575-4.581v-4.234"/>
	<path fill="none" stroke="#6C6D73" stroke-width="2.9817" stroke-linecap="round" stroke-miterlimit="10" d="M75.838,56.355v4.234
		c0,2.529-1.92,4.581-4.447,4.581h-0.699c-2.527,0-4.576-2.052-4.576-4.581v-4.234"/>
	<path fill="none" stroke="#6C6D73" stroke-width="2.9817" stroke-linecap="round" stroke-miterlimit="1" d="M39.362,30.444
		c10.745,5.672,14.856,18.981,9.184,29.727c-4.262,8.073-12.835,12.403-21.393,11.648"/>
	<path fill="none" stroke="#6C6D73" stroke-width="2.9817" stroke-linecap="round" stroke-miterlimit="10" d="M31.027,27.979
		c-8.558-0.754-17.131,3.577-21.394,11.65C3.962,50.374,8.075,63.683,18.82,69.355"/>
	
		<polyline fill="none" stroke="#6C6D73" stroke-width="2.9817" stroke-linecap="round" stroke-linejoin="round" stroke-miterlimit="10" points="
		27.75,32.958 31.933,28.054 27.029,23.872 	"/>
	
		<polyline fill="none" stroke="#6C6D73" stroke-width="2.9817" stroke-linecap="round" stroke-linejoin="round" stroke-miterlimit="10" points="
		31.211,67.041 27.029,71.945 31.933,76.128 	"/>
</g>
</svg>
